Robert De Niro;17/08/1943
Nicolas Cage;7/01/1964
Al Pacino;25/04/1940
Jean Reno;30/07/1948
Brad Pitt;18/12/1963
Sylvester Stallone;6/07/1946
Tom Cruise;3/07/1962
Johnny Depp;9/06/1963
John Travolta;18/02/1954
Bruce Willis;19/03/1955
Arnold Schwarzenegger;30/07/1947
Will Smith;25/09/1968
Jackie Chan;7/04/1954
Ben Affleck;15/08/1972
Adam Sandler;9/09/1966
Russell Crowe;7/04/1964
Mel Gibson;3/01/1956
Morgan Freeman;1/06/1937
Harrison Ford;13/07/1942
Tom Hanks;9/07/1956
Robin Williams;21/07/1951
George Clooney;6/05/1961
Leonardo DiCaprio;11/11/1974
Jason Statham;12/09/1967
Dustin Hoffman;8/08/1937
Ben Stiller;30/11/1965
Jet Li;26/04/1963
Antonio Banderas;10/08/1960
Denzel Washington;28/12/1954
Jim Carrey;17/01/1962
Owen Wilson;18/11/1968
Vin Diesel;18/07/1967
Eddie Murphy;3/04/1961